{
    "results": [
        {
            "vote_count": 302,
            "id": 420818,
            "video": false,
            "vote_average": 6.8,
            "title": "The Lion King",
            "popularity": 502.676,
            "poster_path": "\/dzBtMocZuJbjLOXvrl4zGYigDzh.jpg",
            "original_language": "en",
            "original_title": "The Lion King",
            "genre_ids": [
                12,
                16,
                10751,
                18,
                28
            ],
            "backdrop_path": "\/1TUg5pO1VZ4B0Q1amk3OlXvlpXV.jpg",
            "adult": false,
            "overview": "Simba idolises his father, King Mufasa, and takes to heart his own royal destiny. But not everyone in the kingdom celebrates the new cub's arrival. Scar, Mufasa's brother\u2014and former heir to the throne\u2014has plans of his own. The battle for Pride Rock is ravaged with betrayal, tragedy and drama, ultimately resulting in Simba's exile. With help from a curious pair of newfound friends, Simba will have to figure out how to grow up and take back what is rightfully his.",
            "release_date": "2019-07-12"
        },
        {
            "vote_count": 1428,
            "id": 301528,
            "video": false,
            "vote_average": 7.7,
            "title": "Toy Story 4",
            "popularity": 141.537,
            "poster_path": "\/w9kR8qbmQ01HwnvK4alvnQ2ca0L.jpg",
            "original_language": "en",
            "original_title": "Toy Story 4",
            "genre_ids": [
                12,
                16,
                35,
                10751
            ],
            "backdrop_path": "\/m67smI1IIMmYzCl9axvKNULVKLr.jpg",
            "adult": false,
            "overview": "Woody has always been confident about his place in the world and that his priority is taking care of his kid, whether that's Andy or Bonnie. But when Bonnie adds a reluctant new toy called \"Forky\" to her room, a road trip adventure alongside old and new friends will show Woody how big the world can be for a toy.",
            "release_date": "2019-06-19"
        },
        {
            "vote_count": 69,
            "id": 511987,
            "video": false,
            "vote_average": 5.9,
            "title": "Crawl",
            "popularity": 87.657,
            "poster_path": "\/mKxpYRIrCZLxZjNqpocJ2RdQW8v.jpg",
            "original_language": "en",
            "original_title": "Crawl",
            "genre_ids": [
                53,
                28,
                27
            ],
            "backdrop_path": "\/2cAce3oD0Hh7f5XxuXmNXa1WiuZ.jpg",
            "adult": false,
            "overview": "While struggling to save her father during a Category 5 hurricane, a young woman finds herself trapped inside a flooding house and fighting for her life against Florida\u2019s most savage and feared predators.",
            "release_date": "2019-07-11"
        },
        {
            "vote_count": 29,
            "id": 524247,
            "video": false,
            "vote_average": 6.7,
            "title": "The Intruder",
            "popularity": 60.49,
            "poster_path": "\/p9xKyetr0ihJ2K6HJMeXzc4IwEv.jpg",
            "original_language": "en",
            "original_title": "The Intruder",
            "genre_ids": [
                53,
                18
            ],
            "backdrop_path": "\/kyegg1r5oxRCZgqU7anHYD2TJap.jpg",
            "adult": false,
            "overview": "A psychological thriller about a young married couple who buys a beautiful Napa Valley house on several acres of land only to find that the man they bought it from refuses to let go of the property.",
            "release_date": "2019-05-03"
        },
        {
            "vote_count": 1653,
            "id": 447404,
            "video": false,
            "vote_average": 7,
            "title": "Pok\u00e9mon Detective Pikachu",
            "popularity": 41.739,
            "poster_path": "\/wgQ7APnFpf1TuviKHXeEe3KnsTV.jpg",
            "original_language": "en",
            "original_title": "Pok\u00e9mon Detective Pikachu",
            "genre_ids": [
                9648,
                10751,
                35,
                878,
                28,
                12
            ],
            "backdrop_path": "\/nDP33LmQwNsnPv29GQazz59HjJI.jpg",
            "adult": false,
            "overview": "In a world where people collect pocket-size monsters (Pok\u00e9mon) to do battle, a boy comes across an intelligent monster who seeks to be a detective.",
            "release_date": "2019-05-03"
        },
        {
            "vote_count": 209,
            "id": 515195,
            "video": false,
            "vote_average": 6.6,
            "title": "Yesterday",
            "popularity": 35.571,
            "poster_path": "\/1rjaRIAqFPQNnMtqSMLtg0VEABi.jpg",
            "original_language": "en",
            "original_title": "Yesterday",
            "genre_ids": [
                35,
                10402,
                10749
            ],
            "backdrop_path": "\/t9xAqZc37OgVkojyQwT3UCanZJk.jpg",
            "adult": false,
            "overview": "Jack Malik is a struggling singer-songwriter in an English seaside town whose dreams of fame are rapidly fading, despite the fierce devotion and support of his childhood best friend, Ellie. After a freak bus accident during a mysterious global blackout, Jack wakes up to discover that he's the only person on Earth who can remember The Beatles.",
            "release_date": "2019-06-27"
        },
        {
            "vote_count": 117,
            "id": 530385,
            "video": false,
            "vote_average": 7.4,
            "title": "Midsommar",
            "popularity": 31.094,
            "poster_path": "\/eycO6M2s38xO1888Gq2gSrXf0A6.jpg",
            "original_language": "en",
            "original_title": "Midsommar",
            "genre_ids": [
                27,
                18
            ],
            "backdrop_path": "\/reU8qaO848nkCay7WPtJcdi61p5.jpg",
            "adult": false,
            "overview": "A young couple travels to Sweden to visit their friend\u2019s rural hometown and attend its mid-summer festival. What begins as an idyllic retreat quickly descends into an increasingly violent and bizarre competition at the hands of a pagan cult.",
            "release_date": "2019-07-03"
        },
        {
            "vote_count": 811,
            "id": 438650,
            "video": false,
            "vote_average": 5.4,
            "title": "Cold Pursuit",
            "popularity": 30.991,
            "poster_path": "\/hXgmWPd1SuujRZ4QnKLzrj79PAw.jpg",
            "original_language": "en",
            "original_title": "Cold Pursuit",
            "genre_ids": [
                28,
                18,
                80,
                53
            ],
            "backdrop_path": "\/aiM3XxYE2JvW1vJ4AC6cI1RjAoT.jpg",
            "adult": false,
            "overview": "The quiet family life of Nels Coxman, a snowplow driver, is upended after his son's murder. Nels begins a vengeful hunt for Viking, the drug lord he holds responsible for the killing, eliminating Viking's associates one by one. As Nels draws closer to Viking, his actions bring even more unexpected and violent consequences, as he proves that revenge is all in the execution.",
            "release_date": "2019-02-07"
        },
        {
            "vote_count": 334,
            "id": 445629,
            "video": false,
            "vote_average": 6.5,
            "title": "Fighting with My Family",
            "popularity": 30.735,
            "poster_path": "\/cVhe15rJLRjolunSWLBN6xQLyGU.jpg",
            "original_language": "en",
            "original_title": "Fighting with My Family",
            "genre_ids": [
                35,
                18
            ],
            "backdrop_path": "\/mYKP6qcDUimVMAHQWLOuDHjO19S.jpg",
            "adult": false,
            "overview": "Born into a tight-knit wrestling family, Paige and her brother Zak are ecstatic when they get the once-in-a-lifetime opportunity to try out for the WWE. But when only Paige earns a spot in the competitive training program, she must leave her loved ones behind and face this new cutthroat world alone. Paige's journey pushes her to dig deep and ultimately prove to the world that what makes her different is the very thing that can make her a star.",
            "release_date": "2019-02-14"
        },
        {
            "vote_count": 244,
            "id": 412117,
            "video": false,
            "vote_average": 6.5,
            "title": "The Secret Life of Pets 2",
            "popularity": 30.474,
            "poster_path": "\/q3mKnSkzp1doIsCye6ap4KIUAbu.jpg",
            "original_language": "en",
            "original_title": "The Secret Life of Pets 2",
            "genre_ids": [
                12,
                16,
                35,
                10751
            ],
            "backdrop_path": "\/kTQQjh53k2twvLDwLH8c0m4w6HR.jpg",
            "adult": false,
            "overview": "Max the terrier must cope with some major life changes when his owner gets married and has a baby. When the family takes a trip to the countryside, nervous Max has numerous run-ins with canine-intolerant cows, hostile foxes and a scary turkey. Luckily for Max, he soon catches a break when he meets Rooster, a gruff farm dog who tries to cure the lovable pooch of his neuroses.",
            "release_date": "2019-05-24"
        },
        {
            "vote_count": 14,
            "id": 466272,
            "video": false,
            "vote_average": 0,
            "title": "Once Upon a Time in Hollywood",
            "popularity": 30.016,
            "poster_path": "\/8j58iEBw9pOXFD2L0nt0ZXeHviB.jpg",
            "original_language": "en",
            "original_title": "Once Upon a Time in Hollywood",
            "genre_ids": [
                18,
                35,
                28,
                80,
                37
            ],
            "backdrop_path": "\/b82nVVhYNRgtsTFV1jkdDwe6LJZ.jpg",
            "adult": false,
            "overview": "A faded television actor and his stunt double strive to achieve fame and success in the film industry during the final years of Hollywood's Golden Age in 1969 Los Angeles.",
            "release_date": "2019-07-25"
        },
        {
            "vote_count": 0,
            "id": 384018,
            "video": false,
            "vote_average": 0,
            "title": "Fast & Furious Presents: Hobbs & Shaw",
            "popularity": 28.149,
            "poster_path": "\/keym7MPn1icW1wWfzMnW3HeuzWU.jpg",
            "original_language": "en",
            "original_title": "Fast & Furious Presents: Hobbs & Shaw",
            "genre_ids": [
                28
            ],
            "backdrop_path": "\/8Xv0sKuuRkIcLBqJ2mauU7GPEzV.jpg",
            "adult": false,
            "overview": "A spinoff of The Fate of the Furious, focusing on Johnson's US Diplomatic Security Agent Luke Hobbs forming an unlikely alliance with Statham's Deckard Shaw.",
            "release_date": "2019-08-01"
        },
        {
            "vote_count": 330,
            "id": 496243,
            "video": false,
            "vote_average": 8.8,
            "title": "Parasite",
            "popularity": 23.698,
            "poster_path": "\/7IiTTgloJzvGI1TAYymCfbfl3vT.jpg",
            "original_language": "ko",
            "original_title": "\uae30\uc0dd\ucda9",
            "genre_ids": [
                18,
                53,
                35
            ],
            "backdrop_path": "\/ny5aCtglk2kceGAuAdiyqbhBBAf.jpg",
            "adult": false,
            "overview": "All unemployed, Ki-taek's family takes peculiar interest in the wealthy and glamorous Parks for their livelihood until they get entangled in an unexpected incident.",
            "release_date": "2019-05-30"
        },
        {
            "vote_count": 37,
            "id": 440918,
            "video": false,
            "vote_average": 6.5,
            "title": "Teen Spirit",
            "popularity": 23.002,
            "poster_path": "\/aFPqJZ9vOcH7QroNxXV5wefX2qe.jpg",
            "original_language": "en",
            "original_title": "Teen Spirit",
            "genre_ids": [
                10402,
                18
            ],
            "backdrop_path": "\/4hjyosidHta4BecvLm2APOXaSzE.jpg",
            "adult": false,
            "overview": "A shy teenager living on the Isle of Wight dreams of pop stardom. With the help of an unlikely mentor, she enters a singing competition that will test her integrity, talent, and ambition.",
            "release_date": "2018-09-07"
        },
        {
            "vote_count": 295,
            "id": 535581,
            "video": false,
            "vote_average": 5.8,
            "title": "The Dead Don't Die",
            "popularity": 18.293,
            "poster_path": "\/fgGzTEoNxptCRtEOpOPvIEdlxAq.jpg",
            "original_language": "en",
            "original_title": "The Dead Don't Die",
            "genre_ids": [
                35,
                27
            ],
            "backdrop_path": "\/sLmVJIvwlGioO8C0wAOdzJWGUHP.jpg",
            "adult": false,
            "overview": "In a small peaceful town, zombies suddenly rise to terrorize the town. Now three bespectacled police officers and a strange Scottish morgue expert must band together to defeat the undead.",
            "release_date": "2019-05-15"
        },
        {
            "vote_count": 0,
            "id": 499701,
            "video": false,
            "vote_average": 0,
            "title": "Dora and the Lost City of Gold",
            "popularity": 15.382,
            "poster_path": "\/jRMzK5Cw7mZo4Pn8kV1setjCz1u.jpg",
            "original_language": "en",
            "original_title": "Dora and the Lost City of Gold",
            "genre_ids": [
                12,
                35,
                10751
            ],
            "backdrop_path": "\/843PwG97xLcz7TUW8tKDNrOc2sj.jpg",
            "adult": false,
            "overview": "Dora, a girl who has spent most of her life exploring the jungle with her parents, now must navigate her most dangerous adventure yet: high school. Always the explorer, Dora quickly finds herself leading Boots (her best friend, a monkey), Diego, and a rag tag group of teens on an adventure to save her parents and solve the impossible mystery behind a lost Inca civilization.",
            "release_date": "2019-08-08"
        },
        {
            "vote_count": 490,
            "id": 401847,
            "video": false,
            "vote_average": 6.9,
            "title": "Can You Ever Forgive Me?",
            "popularity": 15.26,
            "poster_path": "\/hPuZR2bFoV0kuBrA98exWyvTf40.jpg",
            "original_language": "en",
            "original_title": "Can You Ever Forgive Me?",
            "genre_ids": [
                18,
                80,
                35
            ],
            "backdrop_path": "\/shIOFWkjTn2NRvq5r4Mn2xLdZeJ.jpg",
            "adult": false,
            "overview": "When bestselling celebrity biographer is no longer able to get published because she has fallen out of step with current tastes, she turns her art form to deception.",
            "release_date": "2018-10-19"
        },
        {
            "vote_count": 352,
            "id": 505600,
            "video": false,
            "vote_average": 7.3,
            "title": "Booksmart",
            "popularity": 15.245,
            "poster_path": "\/2aSxRDmisJP90H3S0aocyuQIe4z.jpg",
            "original_language": "en",
            "original_title": "Booksmart",
            "genre_ids": [
                35,
                18
            ],
            "backdrop_path": "\/wcAqndL2MkIjPrCrYeuE794weNE.jpg",
            "adult": false,
            "overview": "Two academic teenage superstars realize, on the eve of their high school graduation, that they should have worked less and played more. Determined to never fall short of their peers, the girls set out on a mission to cram four years of fun into one night.",
            "release_date": "2019-05-24"
        },
        {
            "vote_count": 72,
            "id": 441384,
            "video": false,
            "vote_average": 5.2,
            "title": "The Beach Bum",
            "popularity": 13.596,
            "poster_path": "\/iXMxdC7T0t3dxislnUNybcvJmAH.jpg",
            "original_language": "en",
            "original_title": "The Beach Bum",
            "genre_ids": [
                35
            ],
            "backdrop_path": "\/sJspZTaLdaoiQcy5S5ZWcQkLLGM.jpg",
            "adult": false,
            "overview": "An irreverent comedy about the misadventures of Moondog, a rebellious stoner and lovable rogue who lives large.",
            "release_date": "2019-03-21"
        },
        {
            "vote_count": 17,
            "id": 574241,
            "video": false,
            "vote_average": 5.9,
            "title": "Poms",
            "popularity": 12.463,
            "poster_path": "\/m2ksKdmWIoUh3GJfu9oEBLorjAJ.jpg",
            "original_language": "en",
            "original_title": "Poms",
            "genre_ids": [
                35
            ],
            "backdrop_path": "\/crBW5hKJk8BzsGMMTzTBYFTDapd.jpg",
            "adult": false,
            "overview": "A woman moves into a retirement community and starts a cheerleading squad with her fellow residents.",
            "release_date": "2019-05-09"
        }
    ],
    "page": 1,
    "total_results": 257,
    "dates": {
        "maximum": "2019-08-12",
        "minimum": "2019-07-26"
    },
    "total_pages": 13
}
